         run       event       nTopo   nIdTracks  nTauTracks       nTaus      nMuons       nElec   nTrueElec   nFakeElec       nPhot   nTruePhot   nFakePhot
      421739    11578317           6           0           0           0           0           0           0           0           0           0           0
      421739    11578318           7           0           0           0           0           0           0           0           0           0           0
      421739    11578335           8           0           0           0           0           0           0           0           0           0           0
      421739    11578339          11           0           0           0           0           0           0           0           0           0           0
      421739    11578344           4           0           0           0           0           0           0           0           0           0           0
      421739    11578356          10           0           0           0           0           0           0           0           0           0           0
      421739    11578357           6           0           0           0           1           0           0           0           0           0           0
      421739    11578373           7           0           0           0           0           0           0           0           0           0           0
      421739    11578384          10           0           0           0           1           0           0           0           0           0           0
      421739    11578404           7           0           0           0           0           0           0           0           0           0           0
      421739    11578410           8           0           0           0           0           0           0           0           0           0           0
      421739    11578414           6           0           0           0           0           0           0           0           0           0           0
      421739    11578431          12           0           0           0           0           0           0           0           0           0           0
      421739    11578434           5           0           0           0           0           0           0           0           0           0           0
      421739    11578435           8           0           0           0           0           0           0           0           0           0           0
      421739    11578456          13           0           0           0           0           0           0           0           0           0           0
      421739    11578468           4           0           0           0           0           0           0           0           0           0           0
      421739    11578474           6           0           0           0           0           0           0           0           0           0           0
      421739    11578480           6           0           0           0           0           0           0           0           0           0           0
      421739    11578482           5           0           0           0           0           0           0           0           0           0           0
      421739    11578505          12           0           0           0           1           0           0           0           0           0           0
      421739    11578520           7           0           0           0           1           0           0           0           0           0           0
      421739    11578532           1           0           0           0           0           0           0           0           0           0           0
      421739    11578533           7           0           0           0           0           0           0           0           0           0           0
      421739    11578542           6           0           0           0           0           0           0           0           0           0           0
